\relax 
\providecommand\hyper@newdestlabel[2]{}
\catcode `"\active 
\catcode `<\active 
\catcode `>\active 
\@nameuse{es@quoting}
\providecommand\HyperFirstAtBeginDocument{\AtBeginDocument}
\HyperFirstAtBeginDocument{\ifx\hyper@anchor\@undefined
\global\let\oldcontentsline\contentsline
\gdef\contentsline#1#2#3#4{\oldcontentsline{#1}{#2}{#3}}
\global\let\oldnewlabel\newlabel
\gdef\newlabel#1#2{\newlabelxx{#1}#2}
\gdef\newlabelxx#1#2#3#4#5#6{\oldnewlabel{#1}{{#2}{#3}}}
\AtEndDocument{\ifx\hyper@anchor\@undefined
\let\contentsline\oldcontentsline
\let\newlabel\oldnewlabel
\fi}
\fi}
\global\let\hyper@last\relax 
\gdef\HyperFirstAtBeginDocument#1{#1}
\providecommand\HyField@AuxAddToFields[1]{}
\providecommand\HyField@AuxAddToCoFields[2]{}
\bibstyle{es-alpha}
\reset@newl@bel
\select@language{spanish}
\@writefile{toc}{\select@language{spanish}}
\@writefile{lof}{\select@language{spanish}}
\@writefile{lot}{\select@language{spanish}}
\@writefile{toc}{\contentsline {chapter}{Resumen}{\es@scroman  {v}}{chapter*.1}}
\@writefile{lof}{\addvspace {10\p@ }}
\@writefile{lot}{\addvspace {10\p@ }}
\@writefile{toc}{\contentsline {chapter}{Abstract}{\es@scroman  {vii}}{chapter*.2}}
\@writefile{lof}{\addvspace {10\p@ }}
\@writefile{lot}{\addvspace {10\p@ }}
\@writefile{toc}{\contentsline {chapter}{Agradecimientos}{\es@scroman  {ix}}{chapter*.3}}
\@writefile{lof}{\addvspace {10\p@ }}
\@writefile{lot}{\addvspace {10\p@ }}
\newlabel{cha:agradecimientos}{{}{\es@scroman  {ix}}{Agradecimientos}{chapter*.3}{}}
\@writefile{toc}{\contentsline {chapter}{\'{I}ndice general}{\es@scroman  {xiii}}{chapter*.4}}
\undonewlabel{acro:TORCS}
\newlabel{acro:TORCS}{{}{\es@scroman  {xiv}}{\contentsname }{section*.5}{}}
\acronymused{TORCS}
\acronymused{ICE}
\undonewlabel{acro:TDD}
\newlabel{acro:TDD}{{}{\es@scroman  {xvi}}{\contentsname }{section*.6}{}}
\acronymused{TDD}
\acronymused{TDD}
\acronymused{TDD}
\@writefile{toc}{\contentsline {chapter}{\'{I}ndice de cuadros}{\es@scroman  {xvii}}{chapter*.7}}
\acronymused{TORCS}
\acronymused{TORCS}
\@writefile{toc}{\contentsline {chapter}{\'{I}ndice de figuras}{\es@scroman  {xix}}{chapter*.8}}
\acronymused{TORCS}
\acronymused{ICE}
\acronymused{CORBA}
\acronymused{RMI}
\acronymused{AMI}
\acronymused{AMD}
\acronymused{UML}
\acronymused{TDD}
\@writefile{toc}{\contentsline {chapter}{\IeC {\'I}ndice de listados}{\es@scroman  {xxi}}{chapter*.9}}
\acronymused{Slice}
\@writefile{toc}{\contentsline {chapter}{Listado de acr\IeC {\'o}nimos}{\es@scroman  {xxiii}}{chapter*.10}}
\@writefile{lof}{\addvspace {10\p@ }}
\@writefile{lot}{\addvspace {10\p@ }}
\newacro{6DOF}[\AC@hyperlink{6DOF}{6DOF}]{Six Degrees Of Freedom}
\newacro{AMD}[\AC@hyperlink{AMD}{AMD}]{Asynchronous Method Dispatch}
\newacro{AMI}[\AC@hyperlink{AMI}{AMI}]{Asynchronous Method Invocation}
\newacro{API}[\AC@hyperlink{API}{API}]{Application Programming Interface}
\newacro{BASH}[\AC@hyperlink{BASH}{BASH}]{Bourne Again Shell}
\newacro{BFS}[\AC@hyperlink{BFS}{BFS}]{Best First Search}
\newacro{COCOMO}[\AC@hyperlink{COCOMO}{COCOMO}]{COnstructive COst MOdel}
\newacro{CORBA}[\AC@hyperlink{CORBA}{CORBA}]{Common Object Request Broker Architecture}
\newacro{C++}[\AC@hyperlink{C++}{C++}]{Lenguaje de programaci\IeC {\'o}n C++}
\newacro{EMACS}[\AC@hyperlink{EMACS}{EMACS}]{Editor MACroS}
\newacro{FPS}[\AC@hyperlink{FPS}{FPS}]{First Person Shooter}
\newacro{FTP}[\AC@hyperlink{FTP}{FTP}]{File Transfer Protocol}
\newacro{GCC}[\AC@hyperlink{GCC}{GCC}]{GNU Compiler Collection}
\newacro{GIOP}[\AC@hyperlink{GIOP}{GIOP}]{General Inter-ORB Protocol}
\acronymused{GNU}
\newacro{GIMP}[\AC@hyperlink{GIMP}{GIMP}]{\acs {GNU} Image Manipulation Program}
\acronymused{GNU}
\newacro{GNU}[\AC@hyperlink{GNU}{GNU}]{\acs {GNU} is Not Unix}
\newacro{GPL}[\AC@hyperlink{GPL}{GPL}]{GNU General Public License}
\newacro{HUD}[\AC@hyperlink{HUD}{HUD}]{Heads-Up Display}
\newacro{HTTP}[\AC@hyperlink{HTTP}{HTTP}]{Hypertext Transfer Protocol}
\newacro{HTTPS}[\AC@hyperlink{HTTPS}{HTTPS}]{Hypertext Transfer Protocol Secure}
\newacro{IA}[\AC@hyperlink{IA}{IA}]{Inteligencia Artificial}
\newacro{ICE}[\AC@hyperlink{ICE}{ICE}]{Internet Communications Engine}
\newacro{IDL}[\AC@hyperlink{IDL}{IDL}]{Interface Definition Language}
\newacro{IDE}[\AC@hyperlink{IDE}{IDE}]{Integrated Development Environment}
\newacro{IIOP}[\AC@hyperlink{IIOP}{IIOP}]{Internet Inter-ORB Protocol}
\newacro{IP}[\AC@hyperlink{IP}{IP}]{Internet Protocol}
\newacro{KB}[\AC@hyperlink{KB}{KB}]{Kilobyte}
\newacro{LAN}[\AC@hyperlink{LAN}{LAN}]{Local Area Network}
\newacro{NASA}[\AC@hyperlink{NASA}{NASA}]{National Aeronautics and Space Administration}
\newacro{P2P}[\AC@hyperlink{P2P}{P2P}]{Peer-to-Peer}
\newacro{OIS}[\AC@hyperlink{OIS}{OIS}]{Object oriented Input System}
\newacro{OMG}[\AC@hyperlink{OMG}{OMG}]{Object Management Group}
\newacro{OO}[\AC@hyperlink{OO}{OO}]{Orientado a Objetos}
\newacro{ORB}[\AC@hyperlink{ORB}{ORB}]{Object Request Broker}
\newacro{RMI}[\AC@hyperlink{RMI}{RMI}]{Java Remote Method Invocation}
\newacro{RPC}[\AC@hyperlink{RPC}{RPC}]{Remote Procedure Call}
\newacro{RTS}[\AC@hyperlink{RTS}{RTS}]{Real Time Strategy Games}
\newacro{RTT}[\AC@hyperlink{RTT}{RTT}]{Round-Trip delay Time}
\newacro{SDL}[\AC@hyperlink{SDL}{SDL}]{Simple SirectMedia Layer}
\newacro{SFM}[\AC@hyperlink{SFM}{SFM}]{M\IeC {\'a}quina Finita de Estados}
\newacro{Slice}[\AC@hyperlink{Slice}{Slice}]{Specification Language for Ice}
\newacro{SSH}[\AC@hyperlink{SSH}{SSH}]{Secure Shell}
\newacro{TCP}[\AC@hyperlink{TCP}{TCP}]{Transmission Control Protocol}
\newacro{TDD}[\AC@hyperlink{TDD}{TDD}]{Test-driven development}
\newacro{TFG}[\AC@hyperlink{TFG}{TFG}]{Trabajo Fin de Grado}
\newacro{TORCS}[\AC@hyperlink{TORCS}{TORCS}]{The Open Racing Car Simulator}
\newacro{UDP}[\AC@hyperlink{UDP}{UDP}]{User Datagram Protocol}
\newacro{UML}[\AC@hyperlink{UML}{UML}]{Unified Modeling Language}
\newacro{W3C}[\AC@hyperlink{W3C}{W3C}]{World Wide Web Consortium}
\newacro{XML}[\AC@hyperlink{XML}{XML}]{eXtensible Markup Language}
\citation{website:newzoo}
\@writefile{toc}{\contentsline {chapter}{\numberline {1}Introducci\IeC {\'o}n}{1}{chapter.1}}
\@writefile{lof}{\addvspace {10\p@ }}
\@writefile{lot}{\addvspace {10\p@ }}
\newlabel{fig:roles-intro}{{1}{1}{Introducción}{chapter.1}{}}
\@writefile{lof}{\contentsline {figure}{\numberline {1.1}{\ignorespaces Visi\IeC {\'o}n conceptual de un equipo de desarrollo de videojuegos}}{1}{figure.1.1}}
\@writefile{toc}{\contentsline {section}{\numberline {1.1}Estructura del documento}{2}{section.1.1}}
\acronymused{IA}
\@writefile{toc}{\contentsline {section}{\numberline {1.2}Repositorio, Nombre del proyecto y p\IeC {\'a}gina web}{3}{section.1.2}}
\@writefile{toc}{\contentsline {chapter}{\numberline {2}Objetivos}{5}{chapter.2}}
\@writefile{lof}{\addvspace {10\p@ }}
\@writefile{lot}{\addvspace {10\p@ }}
\newlabel{chap:objetivos}{{2}{5}{Objetivos}{chapter.2}{}}
\@writefile{toc}{\contentsline {section}{\numberline {2.1}Objetivo general}{5}{section.2.1}}
\@writefile{toc}{\contentsline {section}{\numberline {2.2}Objetivos espec\IeC {\'\i }ficos}{5}{section.2.2}}
\@writefile{toc}{\contentsline {subsection}{\numberline {2.2.1}Objetivo 1}{5}{subsection.2.2.1}}
\@writefile{toc}{\contentsline {subsection}{\numberline {2.2.2}Objetivo 2}{6}{subsection.2.2.2}}
\@writefile{toc}{\contentsline {subsection}{\numberline {2.2.3}Objetivo 3}{6}{subsection.2.2.3}}
\@writefile{toc}{\contentsline {subsection}{\numberline {2.2.4}Objetivo 4}{6}{subsection.2.2.4}}
\acronymused{LAN}
\@writefile{toc}{\contentsline {chapter}{\numberline {3}Antecedentes}{7}{chapter.3}}
\@writefile{lof}{\addvspace {10\p@ }}
\@writefile{lot}{\addvspace {10\p@ }}
\newlabel{chap:antecedentes}{{3}{7}{Antecedentes}{chapter.3}{}}
\@writefile{toc}{\contentsline {section}{\numberline {3.1}Motores de Juego}{7}{section.3.1}}
\newlabel{sec:motores-de-juego}{{3.1}{7}{Motores de Juego}{section.3.1}{}}
\@writefile{toc}{\contentsline {subsection}{\numberline {3.1.1}Motores de juegos comerciales}{8}{subsection.3.1.1}}
\newlabel{sec:comp-de-motor}{{3.1.1}{8}{Motores de juegos comerciales}{subsection.3.1.1}{}}
\@writefile{toc}{\contentsline {subsubsection}{Unity3D Pro}{8}{subsection.3.1.1}}
\newlabel{sec:unity3dPro}{{3.1.1}{8}{Unity3D Pro}{subsection.3.1.1}{}}
\@writefile{toc}{\contentsline {subsubsection}{Unreal Engine 4}{9}{subsection.3.1.1}}
\newlabel{sec:unreal-engine-4}{{3.1.1}{9}{Unreal Engine 4}{subsection.3.1.1}{}}
\@writefile{toc}{\contentsline {subsubsection}{CryEngine}{9}{subsection.3.1.1}}
\newlabel{sec:cryengine}{{3.1.1}{9}{CryEngine}{subsection.3.1.1}{}}
\acronymused{IA}
\@writefile{toc}{\contentsline {section}{\numberline {3.2}Alternativas libres}{10}{section.3.2}}
\newlabel{sec:altern-de-softw}{{3.2}{10}{Alternativas libres}{section.3.2}{}}
\@writefile{toc}{\contentsline {subsection}{\numberline {3.2.1}Motor de Juegos Libre: Godot}{10}{subsection.3.2.1}}
\newlabel{sec:godot}{{3.2.1}{10}{Motor de Juegos Libre: Godot}{subsection.3.2.1}{}}
\acronymused{IDE}
\citation{ogre3d}
\citation{repositorio-ogre3d}
\citation{entrevista-streeting}
\@writefile{lof}{\contentsline {figure}{\numberline {3.1}{\ignorespaces Interfaz gr\IeC {\'a}fica de Godot Engine}}{11}{figure.3.1}}
\newlabel{fig:godot-engine}{{3.1}{11}{Interfaz gráfica de Godot Engine}{figure.3.1}{}}
\@writefile{toc}{\contentsline {subsection}{\numberline {3.2.2}Ogre3D}{11}{subsection.3.2.2}}
\newlabel{sec:ogre3d}{{3.2.2}{11}{Ogre3D}{subsection.3.2.2}{}}
\citation{politica-contribuciones}
\citation{repositorio-ogre3d}
\citation{Junker:2006:POP:1177262}
\@writefile{lof}{\contentsline {figure}{\numberline {3.2}{\ignorespaces Esquema general de la arquitectura de Ogre3D}}{12}{figure.3.2}}
\newlabel{fig:arquitectura-ogre3d}{{3.2}{12}{Esquema general de la arquitectura de Ogre3D}{figure.3.2}{}}
\acronymused{XML}
\acronymused{XML}
\citation{bullet-web}
\citation{bullet-repo}
\citation{bullet-nasa}
\@writefile{toc}{\contentsline {subsection}{\numberline {3.2.3}Bullet Physics}{14}{subsection.3.2.3}}
\newlabel{sec:bullet-physics}{{3.2.3}{14}{Bullet Physics}{subsection.3.2.3}{}}
\acronymused{GNU}
\acronymused{NASA}
\acronymused{6DOF}
\@writefile{toc}{\contentsline {subsubsection}{Arquitectura}{15}{subsection.3.2.3}}
\@writefile{lof}{\contentsline {figure}{\numberline {3.3}{\ignorespaces Organizaci\IeC {\'o}n por capas de Bullet}}{15}{figure.3.3}}
\newlabel{fig:organizacion}{{3.3}{15}{Organización por capas de Bullet}{figure.3.3}{}}
\@writefile{toc}{\contentsline {subsubsection}{Encauzamiento del componente de f\IeC {\'\i }sica de cuerpos r\IeC {\'\i }gidos}{15}{figure.3.3}}
\citation{carPhysics}
\citation{carPhysics}
\@writefile{lof}{\contentsline {figure}{\numberline {3.4}{\ignorespaces Pipeline del componente de cuerpos}}{16}{figure.3.4}}
\newlabel{fig:pipeline}{{3.4}{16}{Pipeline del componente de cuerpos}{figure.3.4}{}}
\@writefile{toc}{\contentsline {section}{\numberline {3.3}F\IeC {\'\i }sicas en din\IeC {\'a}mica de veh\IeC {\'\i }culos}{16}{section.3.3}}
\newlabel{sec:fisicas-en-dinamica}{{3.3}{16}{Físicas en dinámica de vehículos}{section.3.3}{}}
\@writefile{toc}{\contentsline {subsection}{\numberline {3.3.1}Movimientos rectil\IeC {\'\i }neos}{16}{subsection.3.3.1}}
\newlabel{sec:movim-rect}{{3.3.1}{16}{Movimientos rectilíneos}{subsection.3.3.1}{}}
\citation{carPhysics}
\@writefile{lof}{\contentsline {figure}{\numberline {3.5}{\ignorespaces Curva de par motor/potencia del Corvette LS1}}{17}{figure.3.5}}
\newlabel{fig:ParMotorCorvetteLS1}{{3.5}{17}{Curva de par motor/potencia del Corvette LS1}{figure.3.5}{}}
\@writefile{lof}{\contentsline {figure}{\numberline {3.6}{\ignorespaces Par motor aplicado sobre el eje de tracci\IeC {\'o}n}}{17}{figure.3.6}}
\newlabel{fig:parmotor-ejetractor}{{3.6}{17}{Par motor aplicado sobre el eje de tracción}{figure.3.6}{}}
\citation{carPhysics}
\@writefile{toc}{\contentsline {subsection}{\numberline {3.3.2}Transferencia de peso}{18}{subsection.3.3.2}}
\newlabel{sec:transf-de-peso}{{3.3.2}{18}{Transferencia de peso}{subsection.3.3.2}{}}
\@writefile{lof}{\contentsline {figure}{\numberline {3.7}{\ignorespaces Distribuci\IeC {\'o}n del peso del coche sobre las ruedas}}{18}{figure.3.7}}
\newlabel{fig:distribuci\IeC {\'o}n-de-peso}{{3.7}{18}{Distribución del peso del coche sobre las ruedas}{figure.3.7}{}}
\@writefile{toc}{\contentsline {subsection}{\numberline {3.3.3}Giros}{18}{subsection.3.3.3}}
\newlabel{sec:giros}{{3.3.3}{18}{Giros}{subsection.3.3.3}{}}
\citation{academicIAgames}
\@writefile{toc}{\contentsline {section}{\numberline {3.4}Visi\IeC {\'o}n general de la Inteligencia Artificial}{19}{section.3.4}}
\newlabel{sec:algor-de-intel}{{3.4}{19}{Visión general de la Inteligencia Artificial}{section.3.4}{}}
\acronymused{IA}
\acronymused{IA}
\acronymused{IA}
\acronymused{IA}
\citation{Mourato:2011:ALG:2071423.2071433}
\@writefile{lof}{\contentsline {figure}{\numberline {3.8}{\ignorespaces Imagen del juego \emph  {Pong}}}{20}{figure.3.8}}
\newlabel{fig:pong}{{3.8}{20}{Imagen del juego \emph {Pong}}{figure.3.8}{}}
\citation{Russell2004}
\@writefile{toc}{\contentsline {subsection}{\numberline {3.4.1}Algoritmo A*}{21}{subsection.3.4.1}}
\newlabel{sec:algoritmo-a}{{3.4.1}{21}{Algoritmo A*}{subsection.3.4.1}{}}
\undonewlabel{acro:BFS}
\newlabel{acro:BFS}{{3.4.1}{21}{Algoritmo A*}{section*.11}{}}
\acronymused{BFS}
\newlabel{list:A-star}{{3.1}{21}{Pseudocódigo del algoritmo A*}{lstlisting.3.1}{}}
\@writefile{lol}{\contentsline {lstlisting}{\numberline {3.1}Pseudoc\IeC {\'o}digo del algoritmo A*}{21}{lstlisting.3.1}}
\citation{a-star-modification}
\citation{a-star-modification}
\citation{a-star-modification}
\citation{a-star-modification}
\citation{a-star-modification}
\@writefile{lof}{\contentsline {figure}{\numberline {3.9}{\ignorespaces Estudio de los vecinos en el algoritmo A*}}{22}{figure.3.9}}
\newlabel{fig:astar-vecinos}{{3.9}{22}{Estudio de los vecinos en el algoritmo A*}{figure.3.9}{}}
\acronymused{IA}
\citation{ohyagi2007racing}
\citation{torcs-overview}
\@writefile{lof}{\contentsline {figure}{\numberline {3.10}{\ignorespaces Sistema de detecci\IeC {\'o}n de colisiones basado en un c\IeC {\'o}digo de color}}{23}{figure.3.10}}
\newlabel{fig:color-collision-detection}{{3.10}{23}{Sistema de detección de colisiones basado en un código de color}{figure.3.10}{}}
\@writefile{toc}{\contentsline {subsection}{\numberline {3.4.2}Rubber Band}{23}{subsection.3.4.2}}
\newlabel{sec:rubber-band}{{3.4.2}{23}{Rubber Band}{subsection.3.4.2}{}}
\citation{torcs-overview-architecture}
\citation{repo-torcs}
\citation{torcs-overview-architecture}
\acronymused{TORCS}
\@writefile{toc}{\contentsline {section}{\numberline {3.5}Caso de estudio: \acf {TORCS}}{24}{section.3.5}}
\newlabel{sec:acstorcs}{{3.5}{24}{Caso de estudio: \acf {TORCS}}{section.3.5}{}}
\acronymused{TORCS}
\acronymused{IA}
\@writefile{lof}{\contentsline {figure}{\numberline {3.11}{\ignorespaces Vista general de la arquitectura de \acs {TORCS}}}{24}{figure.3.11}}
\acronymused{TORCS}
\newlabel{fig:torcs-architecture}{{3.11}{24}{Vista general de la arquitectura de \acs {TORCS}}{figure.3.11}{}}
\acronymused{GNU}
\acronymused{GPL}
\acronymused{TORCS}
\acronymused{TORCS}
\acronymused{UDP}
\acronymused{TORCS}
\citation{torcs-overview-architecture}
\citation{torcs-overview-architecture}
\@writefile{lot}{\contentsline {table}{\numberline {3.1}{\ignorespaces Lista de sensores de \acs {TORCS}}}{25}{table.3.1}}
\acronymused{TORCS}
\newlabel{fig:torcs-sensores}{{3.1}{25}{Lista de sensores de \acs {TORCS}}{table.3.1}{}}
\acronymused{TORCS}
\citation{smed2006algorithms}
\@writefile{lot}{\contentsline {table}{\numberline {3.2}{\ignorespaces Lista de actuadores de \acs {TORCS}}}{26}{table.3.2}}
\acronymused{TORCS}
\newlabel{fig:torcs-actuadores}{{3.2}{26}{Lista de actuadores de \acs {TORCS}}{table.3.2}{}}
\@writefile{toc}{\contentsline {section}{\numberline {3.6}Historia de los juegos en red}{26}{section.3.6}}
\newlabel{sec:intr-los-jueg}{{3.6}{26}{Historia de los juegos en red}{section.3.6}{}}
\acronymused{FPS}
\@writefile{toc}{\contentsline {subsection}{\numberline {3.6.1}Peer-to-Peer Lockstep}{27}{subsection.3.6.1}}
\newlabel{sec:peer-peer-lockstep}{{3.6.1}{27}{Peer-to-Peer Lockstep}{subsection.3.6.1}{}}
\acronymused{P2P}
\acronymused{RTS}
\@writefile{lof}{\contentsline {figure}{\numberline {3.12}{\ignorespaces Ejemplo de red Peer to Peer}}{27}{figure.3.12}}
\newlabel{fig:peer-to-peer}{{3.12}{27}{Ejemplo de red Peer to Peer}{figure.3.12}{}}
\acronymused{RTS}
\acronymused{LAN}
\@writefile{toc}{\contentsline {subsection}{\numberline {3.6.2}Cliente-Servidor}{28}{subsection.3.6.2}}
\newlabel{sec:cliente-servidor}{{3.6.2}{28}{Cliente-Servidor}{subsection.3.6.2}{}}
\citation{Yanh09prediction}
\citation{Yanh09lag}
\@writefile{lof}{\contentsline {figure}{\numberline {3.13}{\ignorespaces Ejemplo de red Cliente-Servidor}}{29}{figure.3.13}}
\newlabel{fig:client-server}{{3.13}{29}{Ejemplo de red Cliente-Servidor}{figure.3.13}{}}
\acronymused{RTT}
\@writefile{toc}{\contentsline {subsection}{\numberline {3.6.3}Mecanismo de predicci\IeC {\'o}n en el lado del cliente}{29}{subsection.3.6.3}}
\newlabel{sec:mecan-de-pred}{{3.6.3}{29}{Mecanismo de predicción en el lado del cliente}{subsection.3.6.3}{}}
\acronymused{RTT}
\citation{Yanh09lag}
\@writefile{lof}{\contentsline {figure}{\numberline {3.14}{\ignorespaces Ejemplo del proceso de sincronizaci\IeC {\'o}n entre un cliente y un servidor}}{31}{figure.3.14}}
\newlabel{fig:cliente-sinc}{{3.14}{31}{Ejemplo del proceso de sincronización entre un cliente y un servidor}{figure.3.14}{}}
\@writefile{toc}{\contentsline {subsection}{\numberline {3.6.4}Compensaci\IeC {\'o}n de latencia}{31}{subsection.3.6.4}}
\newlabel{sec:comp-de-latenc}{{3.6.4}{31}{Compensación de latencia}{subsection.3.6.4}{}}
\citation{game-networking-history}
\acronymused{FPS}
\@writefile{toc}{\contentsline {section}{\numberline {3.7}T\IeC {\'e}cnicas de sincronizaci\IeC {\'o}n en videojuegos}{32}{section.3.7}}
\newlabel{sec:modelos-de-red}{{3.7}{32}{Técnicas de sincronización en videojuegos}{section.3.7}{}}
\@writefile{lof}{\contentsline {figure}{\numberline {3.15}{\ignorespaces Ejemplo de compensaci\IeC {\'o}n de latencia}}{33}{figure.3.15}}
\newlabel{fig:lag-compensation}{{3.15}{33}{Ejemplo de compensación de latencia}{figure.3.15}{}}
\@writefile{toc}{\contentsline {subsection}{\numberline {3.7.1}Lockstep determinista}{33}{subsection.3.7.1}}
\newlabel{sec:lockst-determ}{{3.7.1}{33}{Lockstep determinista}{subsection.3.7.1}{}}
\acronymused{KB}
\citation{Paul99Inter}
\@writefile{toc}{\contentsline {subsection}{\numberline {3.7.2}Snapshots e Interpolaci\IeC {\'o}n}{34}{subsection.3.7.2}}
\newlabel{sec:snapsh-e-interp}{{3.7.2}{34}{Snapshots e Interpolación}{subsection.3.7.2}{}}
\@writefile{toc}{\contentsline {subsubsection}{Tipos de interpolaci\IeC {\'o}n}{34}{subsection.3.7.2}}
\newlabel{sec:tipos-de-interp}{{3.7.2}{34}{Tipos de interpolación}{subsection.3.7.2}{}}
\citation{Paul99Inter}
\citation{Paul99Inter}
\citation{Paul99Inter}
\newlabel{list:interpolation}{{3.2}{35}{Ejemplos de métodos de interpolación}{lstlisting.3.2}{}}
\@writefile{lol}{\contentsline {lstlisting}{\numberline {3.2}Ejemplos de m\IeC {\'e}todos de interpolaci\IeC {\'o}n}{35}{lstlisting.3.2}}
\@writefile{lof}{\contentsline {figure}{\numberline {3.16}{\ignorespaces M\IeC {\'e}todos de interpolaci\IeC {\'o}n}}{36}{figure.3.16}}
\newlabel{fig:interpolation}{{3.16}{36}{Métodos de interpolación}{figure.3.16}{}}
\@writefile{toc}{\contentsline {subsection}{\numberline {3.7.3}Sincronizaci\IeC {\'o}n basada en estado}{36}{subsection.3.7.3}}
\newlabel{sec:stat-sinchr}{{3.7.3}{36}{Sincronización basada en estado}{subsection.3.7.3}{}}
\newlabel{list:objectUpdate}{{3.3}{36}{Ejemplo de paquete usado en sincronización basada en estado\protect \footnotemark }{lstlisting.3.3}{}}
\@writefile{lol}{\contentsline {lstlisting}{\numberline {3.3}Ejemplo de paquete usado en sincronizaci\IeC {\'o}n basada en estado\footnotemark }{36}{lstlisting.3.3}}
\@writefile{toc}{\contentsline {section}{\numberline {3.8}Middleware orientado a objetos}{37}{section.3.8}}
\newlabel{sec:middleware-de-red}{{3.8}{37}{Middleware orientado a objetos}{section.3.8}{}}
\acronymused{TFG}
\@writefile{lof}{\contentsline {figure}{\numberline {3.17}{\ignorespaces Ejemplo de invocaci\IeC {\'o}n de un objeto remoto desde el cliente al servidor}}{37}{figure.3.17}}
\newlabel{fig:invocacion-remota}{{3.17}{37}{Ejemplo de invocación de un objeto remoto desde el cliente al servidor}{figure.3.17}{}}
\acronymused{OO}
\citation{ice}
\acronymused{ICE}
\acronymused{ICE}
\@writefile{toc}{\contentsline {subsection}{\numberline {3.8.1}ZeroC \acs {ICE}}{38}{subsection.3.8.1}}
\newlabel{sec:zeroc-ice}{{3.8.1}{38}{ZeroC \acs {ICE}}{subsection.3.8.1}{}}
\acronymused{ICE}
\acronymused{OO}
\acronymused{ICE}
\acronymused{OO}
\acronymused{ICE}
\acronymused{ICE}
\@writefile{lof}{\contentsline {figure}{\numberline {3.18}{\ignorespaces Estructura de comunicaci\IeC {\'o}n cliente-servidor en \acs {ICE}}}{38}{figure.3.18}}
\acronymused{ICE}
\newlabel{fig:arquitectura-ice}{{3.18}{38}{Estructura de comunicación cliente-servidor en \acs {ICE}}{figure.3.18}{}}
\@writefile{toc}{\contentsline {subsubsection}{Adaptador de objetos}{39}{figure.3.18}}
\acronymused{TCP}
\@writefile{toc}{\contentsline {subsubsection}{Sirviente}{39}{figure.3.18}}
\@writefile{toc}{\contentsline {subsubsection}{Proxy}{39}{figure.3.18}}
\@writefile{toc}{\contentsline {subsubsection}{Communicator}{39}{figure.3.18}}
\@writefile{toc}{\contentsline {subsubsection}{Slice}{39}{figure.3.18}}
\acronymused{Slice}
\acronymused{ICE}
\acronymused{Slice}
\citation{icestorm}
\acronymused{ICE}
\acronymused{Slice}
\newlabel{cod:ejemplo_slice}{{3.4}{40}{Ejemplo de interfaz \acs {Slice}}{lstlisting.3.4}{}}
\@writefile{lol}{\contentsline {lstlisting}{\numberline {3.4}Ejemplo de interfaz \acs {Slice}}{40}{lstlisting.3.4}}
\acronymused{Slice}
\@writefile{toc}{\contentsline {subsubsection}{Servicios}{40}{lstnumber.3.4.6}}
\newlabel{sec:serviciosIce}{{3.8.1}{40}{Servicios}{lstnumber.3.4.6}{}}
\acronymused{ICE}
\acronymused{ICE}
\@writefile{lof}{\contentsline {figure}{\numberline {3.19}{\ignorespaces Federaci\IeC {\'o}n de canales \emph  {IceStorm}}}{41}{figure.3.19}}
\newlabel{fig:federacion}{{3.19}{41}{Federación de canales \emph {IceStorm}}{figure.3.19}{}}
\citation{corba}
\citation{taocorba}
\citation{opencorba}
\citation{orbitcorba}
\citation{JavaRMI}
\acronymused{ICE}
\@writefile{toc}{\contentsline {subsection}{\numberline {3.8.2}CORBA}{42}{subsection.3.8.2}}
\acronymused{CORBA}
\acronymused{OMG}
\acronymused{CORBA}
\acronymused{CORBA}
\acronymused{ICE}
\acronymused{IDL}
\@writefile{lof}{\contentsline {figure}{\numberline {3.20}{\ignorespaces Arquitectura \acs {CORBA}}}{42}{figure.3.20}}
\acronymused{CORBA}
\newlabel{fig:corba}{{3.20}{42}{Arquitectura \acs {CORBA}}{figure.3.20}{}}
\acronymused{CORBA}
\acronymused{ORB}
\acronymused{CORBA}
\acronymused{GIOP}
\acronymused{ORB}
\acronymused{IIOP}
\acronymused{TCP}
\acronymused{IP}
\acronymused{CORBA}
\@writefile{toc}{\contentsline {subsection}{\numberline {3.8.3}Java RMI}{42}{subsection.3.8.3}}
\newlabel{sec:java-rmi}{{3.8.3}{42}{Java RMI}{subsection.3.8.3}{}}
\acronymused{RMI}
\acronymused{RMI}
\@writefile{lof}{\contentsline {figure}{\numberline {3.21}{\ignorespaces Estructura \acs {RMI}}}{43}{figure.3.21}}
\acronymused{RMI}
\newlabel{fig:estructura-rmi}{{3.21}{43}{Estructura \acs {RMI}}{figure.3.21}{}}
\acronymused{RMI}
\acronymused{RMI}
\acronymused{RMI}
\acronymused{RMI}
\@writefile{toc}{\contentsline {section}{\numberline {3.9}T\IeC {\'e}cnicas en desarrollo de videojuegos}{43}{section.3.9}}
\newlabel{sec:testing}{{3.9}{43}{Técnicas en desarrollo de videojuegos}{section.3.9}{}}
\@writefile{lof}{\contentsline {figure}{\numberline {3.22}{\ignorespaces Metodolog\IeC {\'\i }as de gesti\IeC {\'o}n de proyectos}}{44}{figure.3.22}}
\newlabel{fig:cascadevsagile}{{3.22}{44}{Metodologías de gestión de proyectos}{figure.3.22}{}}
\@writefile{lof}{\contentsline {figure}{\numberline {3.23}{\ignorespaces Flujo de trabajo en un proyecto de desarrollo de un videojuego}}{46}{figure.3.23}}
\newlabel{fig:videogame-workflow}{{3.23}{46}{Flujo de trabajo en un proyecto de desarrollo de un videojuego}{figure.3.23}{}}
\acronymused{HUD}
\citation{server-integration}
\@writefile{toc}{\contentsline {subsection}{\numberline {3.9.1}Testing autom\IeC {\'a}tico en videojuegos}{47}{subsection.3.9.1}}
\newlabel{sec:test-autom-en}{{3.9.1}{47}{Testing automático en videojuegos}{subsection.3.9.1}{}}
\acronymused{IA}
\newlabel{list:juego-linea-ordenes}{{3.5}{48}{Ejecución guiada de un videojuego}{lstlisting.3.5}{}}
\@writefile{lol}{\contentsline {lstlisting}{\numberline {3.5}Ejecuci\IeC {\'o}n guiada de un videojuego}{48}{lstlisting.3.5}}
\newlabel{list:ejemplo-log}{{3.6}{48}{Ejemplo de línea de un fichero de log}{lstlisting.3.6}{}}
\@writefile{lol}{\contentsline {lstlisting}{\numberline {3.6}Ejemplo de l\IeC {\'\i }nea de un fichero de log}{48}{lstlisting.3.6}}
\citation{server-integration}
\citation{android-instrumentation}
\@writefile{toc}{\contentsline {chapter}{\numberline {4}Desarrollo del proyecto}{51}{chapter.4}}
\@writefile{lof}{\addvspace {10\p@ }}
\@writefile{lot}{\addvspace {10\p@ }}
\newlabel{cha:desarrollo}{{4}{51}{Desarrollo del proyecto}{chapter.4}{}}
\@writefile{toc}{\contentsline {section}{\numberline {4.0}Entrenamiento con la biblioteca de renderizado}{51}{section.4.0}}
\newlabel{sec:it0}{{4.0}{51}{Entrenamiento con la biblioteca de renderizado}{section.4.0}{}}
\@writefile{toc}{\contentsline {subsection}{\numberline {4.0.1}Analisis}{51}{subsection.4.0.1}}
\newlabel{sec:analisis-0}{{4.0.1}{51}{Analisis}{subsection.4.0.1}{}}
\@writefile{toc}{\contentsline {subsection}{\numberline {4.0.2}Dise\IeC {\~n}o e Implementaci\IeC {\'o}n}{52}{subsection.4.0.2}}
\newlabel{sec:implementacion-0}{{4.0.2}{52}{Diseño e Implementación}{subsection.4.0.2}{}}
\@writefile{lof}{\contentsline {figure}{\numberline {4.1}{\ignorespaces Jerarqu\IeC {\'\i }a de herencia de la clase Ogre::MovableObject\footnotemark }}{53}{figure.4.1}}
\newlabel{fig:herencia-movable-object}{{4.1}{53}{Jerarquía de herencia de la clase Ogre::MovableObject\protect \footnotemark }{figure.4.1}{}}
\@writefile{toc}{\contentsline {section}{\numberline {4.1}Creaci\IeC {\'o}n de la primera prueba y renderizado de un coche}{53}{section.4.1}}
\newlabel{sec:it1}{{4.1}{53}{Creación de la primera prueba y renderizado de un coche}{section.4.1}{}}
\@writefile{lof}{\contentsline {figure}{\numberline {4.2}{\ignorespaces Resultado de la iteraci\IeC {\'o}n 0}}{54}{figure.4.2}}
\newlabel{fig:ogre-sinbad}{{4.2}{54}{Resultado de la iteración 0}{figure.4.2}{}}
\@writefile{toc}{\contentsline {subsection}{\numberline {4.1.1}An\IeC {\'a}lisis}{54}{subsection.4.1.1}}
\newlabel{sec:analisis-1}{{4.1.1}{54}{Análisis}{subsection.4.1.1}{}}
\@writefile{toc}{\contentsline {subsection}{\numberline {4.1.2}Dise\IeC {\~n}o e Implementaci\IeC {\'o}n}{55}{subsection.4.1.2}}
\newlabel{sec:implementacion-1}{{4.1.2}{55}{Diseño e Implementación}{subsection.4.1.2}{}}
\citation{boost-log-manual}
\@writefile{lof}{\contentsline {figure}{\numberline {4.3}{\ignorespaces Resultado final del modelado del coche}}{56}{figure.4.3}}
\newlabel{fig:modelado-coche}{{4.3}{56}{Resultado final del modelado del coche}{figure.4.3}{}}
\newlabel{test-1}{{4.1}{56}{Primer test}{lstlisting.4.1}{}}
\@writefile{lol}{\contentsline {lstlisting}{\numberline {4.1}Primer test}{56}{lstlisting.4.1}}
\@writefile{lof}{\contentsline {figure}{\numberline {4.4}{\ignorespaces Resultado de la iteraci\IeC {\'o}n 1}}{58}{figure.4.4}}
\newlabel{fig:iteration1}{{4.4}{58}{Resultado de la iteración 1}{figure.4.4}{}}
\@writefile{toc}{\contentsline {section}{\numberline {4.2}Entrenamiento con la biblioteca de gesti\IeC {\'o}n de colisiones}{58}{section.4.2}}
\newlabel{sec:it2}{{4.2}{58}{Entrenamiento con la biblioteca de gestión de colisiones}{section.4.2}{}}
\@writefile{toc}{\contentsline {subsection}{\numberline {4.2.1}An\IeC {\'a}lisis}{58}{subsection.4.2.1}}
\newlabel{sec:analisis-2}{{4.2.1}{58}{Análisis}{subsection.4.2.1}{}}
\@writefile{lof}{\contentsline {figure}{\numberline {4.5}{\ignorespaces Renderizado de formas f\IeC {\'\i }sicas de colisi\IeC {\'o}n}}{60}{figure.4.5}}
\newlabel{fig:formas-colision}{{4.5}{60}{Renderizado de formas físicas de colisión}{figure.4.5}{}}
\@writefile{toc}{\contentsline {subsection}{\numberline {4.2.2}Dise\IeC {\~n}o e Implementaci\IeC {\'o}n}{60}{subsection.4.2.2}}
\newlabel{sec:implementacion-2}{{4.2.2}{60}{Diseño e Implementación}{subsection.4.2.2}{}}
\@writefile{toc}{\contentsline {subsubsection}{Integraci\IeC {\'o}n con Ogre3D}{60}{subsection.4.2.2}}
\newlabel{sec:integr-con-ogre3d}{{4.2.2}{60}{Integración con Ogre3D}{subsection.4.2.2}{}}
\newlabel{list:motion-state}{{4.2}{61}{Método setWorldTransform de la clase MotionState}{lstlisting.4.2}{}}
\@writefile{lol}{\contentsline {lstlisting}{\numberline {4.2}M\IeC {\'e}todo setWorldTransform de la clase MotionState}{61}{lstlisting.4.2}}
\newlabel{list:rigid-body-creation}{{4.3}{61}{Creación de un cuerpo rígido}{lstlisting.4.3}{}}
\@writefile{lol}{\contentsline {lstlisting}{\numberline {4.3}Creaci\IeC {\'o}n de un cuerpo r\IeC {\'\i }gido}{61}{lstlisting.4.3}}
\@writefile{lof}{\contentsline {figure}{\numberline {4.6}{\ignorespaces Simulaci\IeC {\'o}n del comportamiento de cuerpos esf\IeC {\'e}ricos}}{62}{figure.4.6}}
\newlabel{fig:simulacion-esferas}{{4.6}{62}{Simulación del comportamiento de cuerpos esféricos}{figure.4.6}{}}
\@writefile{toc}{\contentsline {section}{\numberline {4.3}Gesti\IeC {\'o}n de eventos de usuario}{62}{section.4.3}}
\newlabel{sec:it3}{{4.3}{62}{Gestión de eventos de usuario}{section.4.3}{}}
\@writefile{toc}{\contentsline {subsection}{\numberline {4.3.1}An\IeC {\'a}lisis}{62}{subsection.4.3.1}}
\newlabel{sec:analisis-3}{{4.3.1}{62}{Análisis}{subsection.4.3.1}{}}
\citation{OIS-repo}
\citation{Buschmann:1996:PSA:249013}
\@writefile{toc}{\contentsline {subsection}{\numberline {4.3.2}Dise\IeC {\~n}o e Implementaci\IeC {\'o}n}{63}{subsection.4.3.2}}
\newlabel{sec:implementacion-3}{{4.3.2}{63}{Diseño e Implementación}{subsection.4.3.2}{}}
\acronymused{OIS}
\acronymused{GNU}
\acronymused{OIS}
\acronymused{OIS}
\acronymused{OIS}
\newlabel{list:declaracion-input}{{4.4}{63}{Declaración de la clase EventListener}{lstlisting.4.4}{}}
\@writefile{lol}{\contentsline {lstlisting}{\numberline {4.4}Declaraci\IeC {\'o}n de la clase EventListener}{63}{lstlisting.4.4}}
\newlabel{list:implementacion-input}{{4.5}{64}{Métodos mas importantes de la clase EventListener}{lstlisting.4.5}{}}
\@writefile{lol}{\contentsline {lstlisting}{\numberline {4.5}M\IeC {\'e}todos mas importantes de la clase EventListener}{64}{lstlisting.4.5}}
\newlabel{list:mapeo-accion-callback}{{4.6}{65}{Ejemplo de mapeo tecla-acción}{lstlisting.4.6}{}}
\@writefile{lol}{\contentsline {lstlisting}{\numberline {4.6}Ejemplo de mapeo tecla-acci\IeC {\'o}n}{65}{lstlisting.4.6}}
\@writefile{toc}{\contentsline {section}{\numberline {4.4}Modelado realista del movimiento del coche}{67}{section.4.4}}
\newlabel{sec:it4}{{4.4}{67}{Modelado realista del movimiento del coche}{section.4.4}{}}
\@writefile{toc}{\contentsline {subsection}{\numberline {4.4.1}An\IeC {\'a}lisis}{68}{subsection.4.4.1}}
\newlabel{sec:analisis-4}{{4.4.1}{68}{Análisis}{subsection.4.4.1}{}}
\newlabel{def:btvehicleTuning}{{4.4.1}{68}{Análisis}{subsection.4.4.1}{}}
\@writefile{toc}{\contentsline {subsection}{\numberline {4.4.2}Dise\IeC {\~n}o e Implementaci\IeC {\'o}n}{69}{subsection.4.4.2}}
\newlabel{sec:implementacion-4}{{4.4.2}{69}{Diseño e Implementación}{subsection.4.4.2}{}}
\@writefile{lof}{\contentsline {figure}{\numberline {4.7}{\ignorespaces Patr\IeC {\'o}n Command}}{69}{figure.4.7}}
\newlabel{fig:command}{{4.7}{69}{Patrón Command}{figure.4.7}{}}
\newlabel{list:declaracion-car}{{4.7}{70}{Declaración de la parte pública de la clase Car}{lstlisting.4.7}{}}
\@writefile{lol}{\contentsline {lstlisting}{\numberline {4.7}Declaraci\IeC {\'o}n de la parte p\IeC {\'u}blica de la clase Car}{70}{lstlisting.4.7}}
\newlabel{list:implementacion-car}{{4.8}{71}{Implementación de algunos de los métodos mas importantes de la clase Car}{lstlisting.4.8}{}}
\@writefile{lol}{\contentsline {lstlisting}{\numberline {4.8}Implementaci\IeC {\'o}n de algunos de los m\IeC {\'e}todos mas importantes de la clase Car}{71}{lstlisting.4.8}}
\newlabel{list:declaracion-car-controller}{{4.9}{73}{Declaración de la clase CarController}{lstlisting.4.9}{}}
\@writefile{lol}{\contentsline {lstlisting}{\numberline {4.9}Declaraci\IeC {\'o}n de la clase CarController}{73}{lstlisting.4.9}}
\newlabel{list:implementacion-car-controller}{{4.10}{74}{Implementación de algunos de los métodos mas importantes de la clase CarController}{lstlisting.4.10}{}}
\@writefile{lol}{\contentsline {lstlisting}{\numberline {4.10}Implementaci\IeC {\'o}n de algunos de los m\IeC {\'e}todos mas importantes de la clase CarController}{74}{lstlisting.4.10}}
\newlabel{list:car.config}{{4.11}{76}{Fichero de configuración del coche}{lstlisting.4.11}{}}
\@writefile{lol}{\contentsline {lstlisting}{\numberline {4.11}Fichero de configuraci\IeC {\'o}n del coche}{76}{lstlisting.4.11}}
\@writefile{lof}{\contentsline {figure}{\numberline {4.8}{\ignorespaces Resultado de la iteracion 4}}{77}{figure.4.8}}
\newlabel{fig:iteration4}{{4.8}{77}{Resultado de la iteracion 4}{figure.4.8}{}}
\@writefile{toc}{\contentsline {section}{\numberline {4.5}Creaci\IeC {\'o}n de la m\IeC {\'a}quina de estados y de las principales interfaces}{77}{section.4.5}}
\newlabel{sec:it5}{{4.5}{77}{Creación de la máquina de estados y de las principales interfaces}{section.4.5}{}}
\acronymused{SFM}
\@writefile{toc}{\contentsline {subsection}{\numberline {4.5.1}An\IeC {\'a}lisis}{77}{subsection.4.5.1}}
\newlabel{sec:analisis-5}{{4.5.1}{77}{Análisis}{subsection.4.5.1}{}}
\acronymused{SFM}
\newlabel{list:bucle-no-estados}{{4.12}{78}{Pseudocódigo del bucle de juego sin orientación a estados}{lstlisting.4.12}{}}
\@writefile{lol}{\contentsline {lstlisting}{\numberline {4.12}Pseudoc\IeC {\'o}digo del bucle de juego sin orientaci\IeC {\'o}n a estados}{78}{lstlisting.4.12}}
\citation{cegui-web}
\@writefile{toc}{\contentsline {subsection}{\numberline {4.5.2}Dise\IeC {\~n}o e Implementaci\IeC {\'o}n}{79}{subsection.4.5.2}}
\newlabel{sec:implementacion-5}{{4.5.2}{79}{Diseño e Implementación}{subsection.4.5.2}{}}
\@writefile{toc}{\contentsline {subsubsection}{Creaci\IeC {\'o}n de las primeras interfaces}{79}{subsection.4.5.2}}
\newlabel{sec:creacion-de-las}{{4.5.2}{79}{Creación de las primeras interfaces}{subsection.4.5.2}{}}
\@writefile{lof}{\contentsline {figure}{\numberline {4.9}{\ignorespaces Resultado de la iteracion 5}}{79}{figure.4.9}}
\newlabel{fig:primera-interfaz}{{4.9}{79}{Resultado de la iteracion 5}{figure.4.9}{}}
\acronymused{XML}
\newlabel{menu.layout}{{4.13}{80}{Definición de una ventana usando CEGUI}{lstlisting.4.13}{}}
\@writefile{lol}{\contentsline {lstlisting}{\numberline {4.13}Definici\IeC {\'o}n de una ventana usando CEGUI}{80}{lstlisting.4.13}}
\newlabel{cegui-tipograf\IeC {\'\i }a}{{4.14}{81}{Definición de una tipografía en CEGUI}{lstlisting.4.14}{}}
\@writefile{lol}{\contentsline {lstlisting}{\numberline {4.14}Definici\IeC {\'o}n de una tipograf\IeC {\'\i }a en CEGUI}{81}{lstlisting.4.14}}
\newlabel{cegui-resource-managers}{{4.15}{81}{Inicialización de los gestores de recursos por defecto de CEGUI}{lstlisting.4.15}{}}
\@writefile{lol}{\contentsline {lstlisting}{\numberline {4.15}Inicializaci\IeC {\'o}n de los gestores de recursos por defecto de CEGUI}{81}{lstlisting.4.15}}
\newlabel{cargar-ventana}{{4.16}{81}{Configuración de la ventana principal}{lstlisting.4.16}{}}
\@writefile{lol}{\contentsline {lstlisting}{\numberline {4.16}Configuraci\IeC {\'o}n de la ventana principal}{81}{lstlisting.4.16}}
\newlabel{cegui-callback-boton}{{4.17}{82}{Mapeo de un botón de la interfaz con un callback}{lstlisting.4.17}{}}
\@writefile{lol}{\contentsline {lstlisting}{\numberline {4.17}Mapeo de un bot\IeC {\'o}n de la interfaz con un callback}{82}{lstlisting.4.17}}
\newlabel{cegui-inject-delta}{{4.18}{82}{Injección del pulso de tiempo a CEGUI}{lstlisting.4.18}{}}
\@writefile{lol}{\contentsline {lstlisting}{\numberline {4.18}Injecci\IeC {\'o}n del pulso de tiempo a CEGUI}{82}{lstlisting.4.18}}
\acronymused{SFM}
\@writefile{toc}{\contentsline {subsubsection}{Definici\IeC {\'o}n e implementaci\IeC {\'o}n de la \acs {SFM}}{82}{lstnumber.4.18.2}}
\newlabel{sec:defin-e-impl}{{4.5.2}{82}{Definición e implementación de la \acs {SFM}}{lstnumber.4.18.2}{}}
\acronymused{SFM}
\acronymused{SFM}
\@writefile{lof}{\contentsline {figure}{\numberline {4.10}{\ignorespaces M\IeC {\'a}quina de estados correspondiente a la iteraci\IeC {\'o}n 5.}}{83}{figure.4.10}}
\newlabel{fig:maquina-iteracion5}{{4.10}{83}{Máquina de estados correspondiente a la iteración 5}{figure.4.10}{}}
\@writefile{lof}{\contentsline {figure}{\numberline {4.11}{\ignorespaces Jerarqu\IeC {\'\i }a de estados}}{84}{figure.4.11}}
\newlabel{fig:jerarqu\IeC {\'\i }a-estados}{{4.11}{84}{Jerarquía de estados}{figure.4.11}{}}
\newlabel{bucle-juego-estados}{{4.19}{84}{Pseudocódigo del bucle de juego haciendo uso de estados}{lstlisting.4.19}{}}
\@writefile{lol}{\contentsline {lstlisting}{\numberline {4.19}Pseudoc\IeC {\'o}digo del bucle de juego haciendo uso de estados}{84}{lstlisting.4.19}}
\@writefile{toc}{\contentsline {section}{\numberline {4.6}Creaci\IeC {\'o}n del circuito}{85}{section.4.6}}
\newlabel{sec:it6}{{4.6}{85}{Creación del circuito}{section.4.6}{}}
\@writefile{toc}{\contentsline {subsection}{\numberline {4.6.1}An\IeC {\'a}lisis}{85}{subsection.4.6.1}}
\newlabel{sec:analisis-6}{{4.6.1}{85}{Análisis}{subsection.4.6.1}{}}
\@writefile{lof}{\contentsline {figure}{\numberline {4.12}{\ignorespaces Circuito del juego \emph  {Super Off Road}}}{85}{figure.4.12}}
\newlabel{fig:superOffRoadTrack}{{4.12}{85}{Circuito del juego \emph {Super Off Road}}{figure.4.12}{}}
\@writefile{toc}{\contentsline {subsection}{\numberline {4.6.2}Dise\IeC {\~n}o e Implementaci\IeC {\'o}n}{86}{subsection.4.6.2}}
\newlabel{sec:implementacion-6}{{4.6.2}{86}{Diseño e Implementación}{subsection.4.6.2}{}}
\@writefile{lof}{\contentsline {figure}{\numberline {4.13}{\ignorespaces Modelado de los segmentos que formar\IeC {\'a}n los circuitos}}{87}{figure.4.13}}
\newlabel{fig:modelado-segmentos}{{4.13}{87}{Modelado de los segmentos que formarán los circuitos}{figure.4.13}{}}
\newlabel{list:declaracion-track}{{4.20}{87}{Declaración de la clase Track}{lstlisting.4.20}{}}
\@writefile{lol}{\contentsline {lstlisting}{\numberline {4.20}Declaraci\IeC {\'o}n de la clase Track}{87}{lstlisting.4.20}}
\@writefile{lof}{\contentsline {figure}{\numberline {4.14}{\ignorespaces Fichero de definici\IeC {\'o}n de un circuito}}{88}{figure.4.14}}
\newlabel{fig:circuito-ejemplo}{{4.14}{88}{Fichero de definición de un circuito}{figure.4.14}{}}
\newlabel{list:implementacion-track}{{4.21}{89}{Implementación de algunos de los métodos mas importantes de la clase Track}{lstlisting.4.21}{}}
\@writefile{lol}{\contentsline {lstlisting}{\numberline {4.21}Implementaci\IeC {\'o}n de algunos de los m\IeC {\'e}todos mas importantes de la clase Track}{89}{lstlisting.4.21}}
\@writefile{lof}{\contentsline {figure}{\numberline {4.15}{\ignorespaces Resultado de la iteraci\IeC {\'o}n 7}}{91}{figure.4.15}}
\newlabel{fig:iteration6}{{4.15}{91}{Resultado de la iteración 7}{figure.4.15}{}}
\@writefile{toc}{\contentsline {section}{\numberline {4.7}Adici\IeC {\'o}n de mec\IeC {\'a}nicas de juego y mejora visual del videojuego}{91}{section.4.7}}
\newlabel{sec:it7}{{4.7}{91}{Adición de mecánicas de juego y mejora visual del videojuego}{section.4.7}{}}
\@writefile{toc}{\contentsline {subsection}{\numberline {4.7.1}An\IeC {\'a}lisis}{92}{subsection.4.7.1}}
\newlabel{sec:analisis-7}{{4.7.1}{92}{Análisis}{subsection.4.7.1}{}}
\@writefile{toc}{\contentsline {subsection}{\numberline {4.7.2}Dise\IeC {\~n}o e Implementaci\IeC {\'o}n}{93}{subsection.4.7.2}}
\newlabel{sec:implementacion-7}{{4.7.2}{93}{Diseño e Implementación}{subsection.4.7.2}{}}
\@writefile{lof}{\contentsline {figure}{\numberline {4.16}{\ignorespaces Modelado de powerups}}{93}{figure.4.16}}
\newlabel{fig:modelado-powerups}{{4.16}{93}{Modelado de powerups}{figure.4.16}{}}
\newlabel{list:collision-detect}{{4.22}{94}{Gestión de colisiones en la clase de gestión de físicas}{lstlisting.4.22}{}}
\@writefile{lol}{\contentsline {lstlisting}{\numberline {4.22}Gesti\IeC {\'o}n de colisiones en la clase de gesti\IeC {\'o}n de f\IeC {\'\i }sicas}{94}{lstlisting.4.22}}
\newlabel{list:register-collision-pair}{{4.23}{94}{Registro de un par de colisión}{lstlisting.4.23}{}}
\@writefile{lol}{\contentsline {lstlisting}{\numberline {4.23}Registro de un par de colisi\IeC {\'o}n}{94}{lstlisting.4.23}}
\citation{deterministic-lockstep}
\@writefile{lof}{\contentsline {figure}{\numberline {4.17}{\ignorespaces Resultado de la iteraci\IeC {\'o}n 8}}{95}{figure.4.17}}
\newlabel{fig:iteracion7}{{4.17}{95}{Resultado de la iteración 8}{figure.4.17}{}}
\@writefile{toc}{\contentsline {section}{\numberline {4.8}Implementaci\IeC {\'o}n del modelo de red}{95}{section.4.8}}
\newlabel{sec:it8}{{4.8}{95}{Implementación del modelo de red}{section.4.8}{}}
\acronymused{LAN}
\@writefile{toc}{\contentsline {subsection}{\numberline {4.8.1}An\IeC {\'a}lisis}{95}{subsection.4.8.1}}
\newlabel{sec:analisis-8}{{4.8.1}{95}{Análisis}{subsection.4.8.1}{}}
\citation{interpolation}
\@writefile{toc}{\contentsline {subsection}{\numberline {4.8.2}Dise\IeC {\~n}o e Implementaci\IeC {\'o}n}{97}{subsection.4.8.2}}
\newlabel{sec:implementacion-8}{{4.8.2}{97}{Diseño e Implementación}{subsection.4.8.2}{}}
\acronymused{API}
\newlabel{list:tinman-slice}{{4.24}{97}{Estructuras de datos usados en el modelo de red}{lstlisting.4.24}{}}
\@writefile{lol}{\contentsline {lstlisting}{\numberline {4.24}Estructuras de datos usados en el modelo de red}{97}{lstlisting.4.24}}
\newlabel{list:servidor}{{4.25}{98}{Implementación del servidor de red del juego}{lstlisting.4.25}{}}
\@writefile{lol}{\contentsline {lstlisting}{\numberline {4.25}Implementaci\IeC {\'o}n del servidor de red del juego}{98}{lstlisting.4.25}}
\citation{tcpvsudp}
\acronymused{ICE}
\acronymused{ICE}
\newlabel{list:run-server}{{4.26}{100}{Comando de ejecución del servidor del juego}{lstlisting.4.26}{}}
\@writefile{lol}{\contentsline {lstlisting}{\numberline {4.26}Comando de ejecuci\IeC {\'o}n del servidor del juego}{100}{lstlisting.4.26}}
\newlabel{list:config-file-server}{{4.27}{100}{Fichero de configuración del servidor del juego}{lstlisting.4.27}{}}
\@writefile{lol}{\contentsline {lstlisting}{\numberline {4.27}Fichero de configuraci\IeC {\'o}n del servidor del juego}{100}{lstlisting.4.27}}
\acronymused{UDP}
\acronymused{TCP}
\acronymused{UDP}
\acronymused{TCP}
\acronymused{AMD}
\acronymused{AMI}
\acronymused{AMD}
\@writefile{lof}{\contentsline {figure}{\numberline {4.18}{\ignorespaces invocaci\IeC {\'o}n as\IeC {\'\i }ncrona del cliente al servidor(\acs {AMI})}}{101}{figure.4.18}}
\acronymused{AMI}
\newlabel{fig:ami}{{4.18}{101}{invocación asíncrona del cliente al servidor(\acs {AMI})}{figure.4.18}{}}
\acronymused{AMD}
\acronymused{AMI}
\@writefile{lof}{\contentsline {figure}{\numberline {4.19}{\ignorespaces despachado as\IeC {\'\i }ncrono de las peticiones del cliente por parte del servidor(\acs {AMD})}}{102}{figure.4.19}}
\acronymused{AMD}
\newlabel{fig:amd}{{4.19}{102}{despachado asíncrono de las peticiones del cliente por parte del servidor(\acs {AMD})}{figure.4.19}{}}
\newlabel{list:menu-update}{{4.28}{102}{Método update de la clase Menu}{lstlisting.4.28}{}}
\@writefile{lol}{\contentsline {lstlisting}{\numberline {4.28}M\IeC {\'e}todo update de la clase Menu}{102}{lstlisting.4.28}}
\newlabel{list:implementacion-adaptador}{{4.29}{102}{Implementación del módulo de red del cliente}{lstlisting.4.29}{}}
\@writefile{lol}{\contentsline {lstlisting}{\numberline {4.29}Implementaci\IeC {\'o}n del m\IeC {\'o}dulo de red del cliente}{102}{lstlisting.4.29}}
\newlabel{list:controller}{{4.30}{104}{Declaración clase Controller}{lstlisting.4.30}{}}
\@writefile{lol}{\contentsline {lstlisting}{\numberline {4.30}Declaraci\IeC {\'o}n clase Controller}{104}{lstlisting.4.30}}
\newlabel{list:network}{{4.31}{105}{clase NetworkController}{lstlisting.4.31}{}}
\@writefile{lol}{\contentsline {lstlisting}{\numberline {4.31}clase NetworkController}{105}{lstlisting.4.31}}
\newlabel{list:human}{{4.32}{105}{clase HumanController}{lstlisting.4.32}{}}
\@writefile{lol}{\contentsline {lstlisting}{\numberline {4.32}clase HumanController}{105}{lstlisting.4.32}}
\newlabel{list:peer}{{4.33}{106}{clase PeerI}{lstlisting.4.33}{}}
\@writefile{lol}{\contentsline {lstlisting}{\numberline {4.33}clase PeerI}{106}{lstlisting.4.33}}
\newlabel{list:session-store}{{4.34}{107}{Metodo store de la clase Session}{lstlisting.4.34}{}}
\@writefile{lol}{\contentsline {lstlisting}{\numberline {4.34}Metodo store de la clase Session}{107}{lstlisting.4.34}}
\@writefile{toc}{\contentsline {subsection}{\numberline {4.8.3}An\IeC {\'a}lisis del ancho de banda consumido}{107}{subsection.4.8.3}}
\newlabel{sec:analisis-del-ancho}{{4.8.3}{107}{Análisis del ancho de banda consumido}{subsection.4.8.3}{}}
\acronymused{ICE}
\acronymused{IA}
\@writefile{toc}{\contentsline {section}{\numberline {4.9}Implementaci\IeC {\'o}n del algoritmo de inteligencia artificial}{108}{section.4.9}}
\newlabel{sec:it9}{{4.9}{108}{Implementación del algoritmo de inteligencia artificial}{section.4.9}{}}
\@writefile{toc}{\contentsline {subsection}{\numberline {4.9.1}An\IeC {\'a}lisis}{108}{subsection.4.9.1}}
\newlabel{sec:analisis-9}{{4.9.1}{108}{Análisis}{subsection.4.9.1}{}}
\acronymused{ICE}
\@writefile{toc}{\contentsline {subsection}{\numberline {4.9.2}Dise\IeC {\~n}o e Implementaci\IeC {\'o}n}{109}{subsection.4.9.2}}
\newlabel{sec:implementacion-9}{{4.9.2}{109}{Diseño e Implementación}{subsection.4.9.2}{}}
\acronymused{IA}
\newlabel{list:BotController}{{4.35}{110}{Clase BotController}{lstlisting.4.35}{}}
\@writefile{lol}{\contentsline {lstlisting}{\numberline {4.35}Clase BotController}{110}{lstlisting.4.35}}
\@writefile{toc}{\contentsline {section}{\numberline {4.10}Instrumentaci\IeC {\'o}n del videojuego}{112}{section.4.10}}
\newlabel{sec:it10}{{4.10}{112}{Instrumentación del videojuego}{section.4.10}{}}
\@writefile{toc}{\contentsline {subsection}{\numberline {4.10.1}An\IeC {\'a}lisis}{112}{subsection.4.10.1}}
\newlabel{sec:analisis-10}{{4.10.1}{112}{Análisis}{subsection.4.10.1}{}}
\@writefile{toc}{\contentsline {subsection}{\numberline {4.10.2}Dise\IeC {\~n}o e Implementaci\IeC {\'o}n}{113}{subsection.4.10.2}}
\newlabel{sec:implementacion-10}{{4.10.2}{113}{Diseño e Implementación}{subsection.4.10.2}{}}
\acronymused{ICE}
\acronymused{ICE}
\newlabel{list:instrumentatedcar-slice}{{4.36}{114}{Slice que define la clase InsturmentatedCar}{lstlisting.4.36}{}}
\@writefile{lol}{\contentsline {lstlisting}{\numberline {4.36}Slice que define la clase InsturmentatedCar}{114}{lstlisting.4.36}}
\acronymused{ICE}
\acronymused{ICE}
\newlabel{list:instrumentated-test}{{4.37}{116}{Prueba haciendo uso de la clase InsturmentatedCar}{lstlisting.4.37}{}}
\@writefile{lol}{\contentsline {lstlisting}{\numberline {4.37}Prueba haciendo uso de la clase InsturmentatedCar.}{116}{lstlisting.4.37}}
\acronymused{IA}
\acronymused{IA}
\newlabel{list:icar}{{4.38}{117}{clase InstrumentatedCarI}{lstlisting.4.38}{}}
\@writefile{lol}{\contentsline {lstlisting}{\numberline {4.38}clase InstrumentatedCarI}{117}{lstlisting.4.38}}
\newlabel{list:PlayerFactory}{{4.39}{118}{clase PlayerFactory}{lstlisting.4.39}{}}
\@writefile{lol}{\contentsline {lstlisting}{\numberline {4.39}clase PlayerFactory}{118}{lstlisting.4.39}}
\newlabel{list:CarFactory}{{4.40}{119}{clase CarFactory}{lstlisting.4.40}{}}
\@writefile{lol}{\contentsline {lstlisting}{\numberline {4.40}clase CarFactory}{119}{lstlisting.4.40}}
\citation{sloccount}
\citation{cocomo}
\@writefile{lof}{\contentsline {figure}{\numberline {4.20}{\ignorespaces Resultado de la iteraci\IeC {\'o}n 10}}{120}{figure.4.20}}
\newlabel{fig:prueba-automatica}{{4.20}{120}{Resultado de la iteración 10}{figure.4.20}{}}
\@writefile{toc}{\contentsline {section}{\numberline {4.11}An\IeC {\'a}lisis de costes}{120}{section.4.11}}
\newlabel{sec:analisis-de-costes}{{4.11}{120}{Análisis de costes}{section.4.11}{}}
\acronymused{COCOMO}
\@writefile{lot}{\contentsline {table}{\numberline {4.1}{\ignorespaces L\IeC {\'\i }neas de c\IeC {\'o}digo fuente por directorio y lenguaje}}{121}{table.4.1}}
\@writefile{lot}{\contentsline {table}{\numberline {4.2}{\ignorespaces L\IeC {\'\i }neas de c\IeC {\'o}digo totales divididas por lenguaje de programaci\IeC {\'o}n}}{121}{table.4.2}}
\newlabel{table:coste-proyecto}{{4.11}{121}{Análisis de costes}{table.4.2}{}}
\@writefile{lot}{\contentsline {table}{\numberline {4.3}{\ignorespaces Coste total estimado del proyecto}}{121}{table.4.3}}
\@writefile{toc}{\contentsline {chapter}{\numberline {5}Arquitectura del Motor}{123}{chapter.5}}
\@writefile{lof}{\addvspace {10\p@ }}
\@writefile{lot}{\addvspace {10\p@ }}
\newlabel{cha:arqu-del-motor}{{5}{123}{Arquitectura del Motor}{chapter.5}{}}
\@writefile{toc}{\contentsline {section}{\numberline {5.1}Clase Game}{123}{section.5.1}}
\newlabel{sec:clase-game}{{5.1}{123}{Clase Game}{section.5.1}{}}
\newlabel{list:game-loop}{{5.1}{124}{Instrucciones que se ejecutan en el bucle de juego}{lstlisting.5.1}{}}
\@writefile{lol}{\contentsline {lstlisting}{\numberline {5.1}Instrucciones que se ejecutan en el bucle de juego.}{124}{lstlisting.5.1}}
\@writefile{toc}{\contentsline {section}{\numberline {5.2}Gestores de utilidad}{124}{section.5.2}}
\newlabel{sec:gestores-de-utilidad}{{5.2}{124}{Gestores de utilidad}{section.5.2}{}}
\acronymused{SDL}
\@writefile{toc}{\contentsline {section}{\numberline {5.3}Jerarqu\IeC {\'\i }a de estados}{125}{section.5.3}}
\newlabel{sec:jerarquia-de-estados}{{5.3}{125}{Jerarquía de estados}{section.5.3}{}}
\@writefile{lof}{\contentsline {figure}{\numberline {5.1}{\ignorespaces Diagrama \acs {UML} de la Jerarqu\IeC {\'\i }a de estados}}{126}{figure.5.1}}
\newlabel{fig:estados-uml}{{5.1}{126}{Diagrama \acs {UML} de la Jerarquía de estados}{figure.5.1}{}}
\@writefile{toc}{\contentsline {section}{\numberline {5.4}Controladores de jugador}{126}{section.5.4}}
\newlabel{sec:contr-de-jugad}{{5.4}{126}{Controladores de jugador}{section.5.4}{}}
\@writefile{lof}{\contentsline {figure}{\numberline {5.2}{\ignorespaces Jerarqu\IeC {\'\i }a de controladores}}{127}{figure.5.2}}
\newlabel{fig:jerarquia-controladores}{{5.2}{127}{Jerarquía de controladores}{figure.5.2}{}}
\@writefile{toc}{\contentsline {section}{\numberline {5.5}Clase Sesi\IeC {\'o}n}{127}{section.5.5}}
\newlabel{sec:sesion-de-juego}{{5.5}{127}{Clase Sesión}{section.5.5}{}}
\@writefile{toc}{\contentsline {section}{\numberline {5.6}Clase Car}{127}{section.5.6}}
\newlabel{sec:clase-car}{{5.6}{127}{Clase Car}{section.5.6}{}}
\@writefile{toc}{\contentsline {chapter}{\numberline {6}Metodolog\IeC {\'\i }a y herramientas}{129}{chapter.6}}
\@writefile{lof}{\addvspace {10\p@ }}
\@writefile{lot}{\addvspace {10\p@ }}
\newlabel{chap:metodologias}{{6}{129}{Metodología y herramientas}{chapter.6}{}}
\@writefile{toc}{\contentsline {section}{\numberline {6.1}Metodolog\IeC {\'\i }a usada en este proyecto}{129}{section.6.1}}
\newlabel{sec:metodologia-usada-en}{{6.1}{129}{Metodología usada en este proyecto}{section.6.1}{}}
\acronymused{TDD}
\acronymused{IA}
\citation{manifiesto-agil}
\citation{principios-agiles}
\@writefile{toc}{\contentsline {section}{\numberline {6.2}Desarrollo \IeC {\'A}gil}{130}{section.6.2}}
\newlabel{sec:desarrollo-agil}{{6.2}{130}{Desarrollo Ágil}{section.6.2}{}}
\@writefile{toc}{\contentsline {subsection}{\numberline {6.2.1}Manifiesto por el desarrollo \IeC {\'a}gil del software}{130}{subsection.6.2.1}}
\newlabel{sec:manifiesto-por-el}{{6.2.1}{130}{Manifiesto por el desarrollo ágil del software}{subsection.6.2.1}{}}
\citation{Pressman2005}
\citation{beck-test-drivendevelopment-2003}
\@writefile{toc}{\contentsline {subsection}{\numberline {6.2.2}Proceso \IeC {\'a}gil}{131}{subsection.6.2.2}}
\newlabel{sec:proceso-agil}{{6.2.2}{131}{Proceso ágil}{subsection.6.2.2}{}}
\acronymused{TDD}
\@writefile{toc}{\contentsline {subsection}{\numberline {6.2.3}\acf {TDD}}{131}{subsection.6.2.3}}
\newlabel{sec:test-driv-devel}{{6.2.3}{131}{\acf {TDD}}{subsection.6.2.3}{}}
\acronymused{TDD}
\@writefile{lof}{\contentsline {figure}{\numberline {6.1}{\ignorespaces Flujo de trabajo con \acs {TDD}}}{132}{figure.6.1}}
\acronymused{TDD}
\newlabel{fig:flujo-tdd}{{6.1}{132}{Flujo de trabajo con \acs {TDD}}{figure.6.1}{}}
\acronymused{TDD}
\acronymused{TDD}
\acronymused{TDD}
\@writefile{toc}{\contentsline {subsection}{\numberline {6.2.4}Ventajas de aplicar \acs {TDD}}{133}{subsection.6.2.4}}
\newlabel{sec:ventajas-de-aplicar}{{6.2.4}{133}{Ventajas de aplicar \acs {TDD}}{subsection.6.2.4}{}}
\acronymused{TDD}
\citation{floating-point-determinism}
\acronymused{TDD}
\@writefile{toc}{\contentsline {subsection}{\numberline {6.2.5}Dificultades a la hora de emplear \acs {TDD} en el desarrollo de un videojuego}{134}{subsection.6.2.5}}
\newlabel{sec:dificultades-la-hora}{{6.2.5}{134}{Dificultades a la hora de emplear \acs {TDD} en el desarrollo de un videojuego}{subsection.6.2.5}{}}
\acronymused{TDD}
\acronymused{IA}
\acronymused{IA}
\acronymused{IA}
\acronymused{TDD}
\acronymused{IA}
\citation{Stroustrup:2013:CPL:518791}
\citation{bash}
\@writefile{toc}{\contentsline {section}{\numberline {6.3}Herramientas}{135}{section.6.3}}
\@writefile{toc}{\contentsline {subsection}{\numberline {6.3.1}Lenguajes de programaci\IeC {\'o}n}{135}{subsection.6.3.1}}
\newlabel{sec:leng-de-progr}{{6.3.1}{135}{Lenguajes de programación}{subsection.6.3.1}{}}
\acronymused{C++}
\acronymused{BASH}
\acronymused{W3C}
\@writefile{toc}{\contentsline {subsection}{\numberline {6.3.2}Control de versiones}{135}{subsection.6.3.2}}
\newlabel{sec:control-de-versiones}{{6.3.2}{135}{Control de versiones}{subsection.6.3.2}{}}
\citation{emacs}
\citation{emacs-pills}
\citation{blender}
\citation{make}
\citation{pkg-config}
\citation{gcc}
\citation{gdb}
\citation{ogre3d}
\citation{bullet-web}
\citation{bullet-nasa}
\citation{OIS-repo}
\acronymused{GPL}
\@writefile{toc}{\contentsline {subsection}{\numberline {6.3.3}Herramientas de desarrollo}{136}{subsection.6.3.3}}
\newlabel{sec:herr-de-desarrollo}{{6.3.3}{136}{Herramientas de desarrollo}{subsection.6.3.3}{}}
\undonewlabel{acro:EMACS}
\newlabel{acro:EMACS}{{6.3.3}{136}{Herramientas de desarrollo}{section*.12}{}}
\acronymused{EMACS}
\acronymused{IDE}
\acronymused{GPL}
\acronymused{GIMP}
\acronymused{HUD}
\acronymused{GCC}
\acronymused{GNU}
\acronymused{GNU}
\@writefile{toc}{\contentsline {subsection}{\numberline {6.3.4}Bibliotecas del Motor de juego}{136}{subsection.6.3.4}}
\newlabel{sec:bibl-del-motor}{{6.3.4}{136}{Bibliotecas del Motor de juego}{subsection.6.3.4}{}}
\acronymused{NASA}
\citation{cegui}
\citation{ice}
\acronymused{ICE}
\acronymused{SDL}
\@writefile{toc}{\contentsline {subsection}{\numberline {6.3.5}Documentaci\IeC {\'o}n}{137}{subsection.6.3.5}}
\newlabel{sec:documentaci\IeC {\'o}n}{{6.3.5}{137}{Documentación}{subsection.6.3.5}{}}
\acronymused{GIMP}
\@writefile{toc}{\contentsline {chapter}{\numberline {7}Conclusiones y trabajo futuro}{139}{chapter.7}}
\@writefile{lof}{\addvspace {10\p@ }}
\@writefile{lot}{\addvspace {10\p@ }}
\newlabel{chap:conclusiones}{{7}{139}{Conclusiones y trabajo futuro}{chapter.7}{}}
\@writefile{toc}{\contentsline {subsection}{\numberline {7.0.6}Conclusiones}{139}{subsection.7.0.6}}
\newlabel{sec:conclusiones}{{7.0.6}{139}{Conclusiones}{subsection.7.0.6}{}}
\acronymused{IA}
\acronymused{IA}
\@writefile{toc}{\contentsline {subsection}{\numberline {7.0.7}Mejoras y trabajo futuro}{140}{subsection.7.0.7}}
\newlabel{sec:trabajo-futuro}{{7.0.7}{140}{Mejoras y trabajo futuro}{subsection.7.0.7}{}}
\acronymused{IA}
\@writefile{toc}{\contentsline {chapter}{\numberline {A}Manual de usuario. Instalaci\IeC {\'o}n del juego}{143}{appendix.Alph1}}
\@writefile{lof}{\addvspace {10\p@ }}
\@writefile{lot}{\addvspace {10\p@ }}
\newlabel{cha:manual-de-usuario}{{A}{143}{Manual de usuario. Instalación del juego}{appendix.Alph1}{}}
\newlabel{list:git-clone-tfg-tinman}{{A.1}{143}{Descargar el repositorio}{lstlisting.Alph1.1}{}}
\@writefile{lol}{\contentsline {lstlisting}{\numberline {A.1}Descargar el repositorio.}{143}{lstlisting.Alph1.1}}
\newlabel{list:script-depends}{{A.2}{143}{Ejecución del script de instalación de dependencias}{lstlisting.Alph1.2}{}}
\@writefile{lol}{\contentsline {lstlisting}{\numberline {A.2}Ejecuci\IeC {\'o}n del script de instalaci\IeC {\'o}n de dependencias.}{143}{lstlisting.Alph1.2}}
\acronymused{ICE}
\newlabel{list:script-instalacion}{{A.3}{144}{Script de instalación}{lstlisting.Alph1.3}{}}
\@writefile{lol}{\contentsline {lstlisting}{\numberline {A.3}Script de instalaci\IeC {\'o}n.}{144}{lstlisting.Alph1.3}}
\@writefile{toc}{\contentsline {chapter}{\numberline {B}GNU Free Documentation License}{145}{appendix.Alph2}}
\@writefile{lof}{\addvspace {10\p@ }}
\@writefile{lot}{\addvspace {10\p@ }}
\@writefile{toc}{\contentsline {section}{\numberline {B.0}PREAMBLE}{145}{section.Alph2.0}}
\@writefile{toc}{\contentsline {section}{\numberline {B.1}APPLICABILITY AND DEFINITIONS}{145}{section.Alph2.1}}
\@writefile{toc}{\contentsline {section}{\numberline {B.2}VERBATIM COPYING}{146}{section.Alph2.2}}
\@writefile{toc}{\contentsline {section}{\numberline {B.3}COPYING IN QUANTITY}{146}{section.Alph2.3}}
\@writefile{toc}{\contentsline {section}{\numberline {B.4}MODIFICATIONS}{147}{section.Alph2.4}}
\@writefile{toc}{\contentsline {section}{\numberline {B.5}COLLECTIONS OF DOCUMENTS}{148}{section.Alph2.5}}
\@writefile{toc}{\contentsline {section}{\numberline {B.6}AGGREGATION WITH INDEPENDENT WORKS}{148}{section.Alph2.6}}
\@writefile{toc}{\contentsline {section}{\numberline {B.7}TRANSLATION}{148}{section.Alph2.7}}
\@writefile{toc}{\contentsline {section}{\numberline {B.8}TERMINATION}{148}{section.Alph2.8}}
\@writefile{toc}{\contentsline {section}{\numberline {B.9}FUTURE REVISIONS OF THIS LICENSE}{149}{section.Alph2.9}}
\@writefile{toc}{\contentsline {section}{\numberline {B.10}RELICENSING}{149}{section.Alph2.10}}
\bibdata{main}
\bibcite{manifiesto-agil}{Alla}
\bibcite{principios-agiles}{Allb}
\bibcite{beck-test-drivendevelopment-2003}{Bec03}
\bibcite{Yanh09lag}{Ber01a}
\bibcite{Yanh09prediction}{Ber01b}
\bibcite{Buschmann:1996:PSA:249013}{BMR{$^{+}$}96}
\bibcite{boost-log-manual}{boo}
\bibcite{Paul99Inter}{Bou99}
\bibcite{bullet-nasa}{bula}
\bibcite{bullet-repo}{bulb}
\bibcite{bullet-web}{bulc}
\bibcite{cegui}{cega}
\bibcite{cegui-web}{cegb}
\bibcite{corba}{COR}
\@writefile{toc}{\contentsline {chapter}{Referencias}{151}{appendix*.13}}
\acronymused{NASA}
\bibcite{entrevista-streeting}{ent}
\bibcite{floating-point-determinism}{Fie}
\bibcite{tcpvsudp}{Fie08}
\bibcite{game-networking-history}{Fie10}
\bibcite{deterministic-lockstep}{Fie14a}
\bibcite{interpolation}{Fie14b}
\bibcite{blender}{Fou}
\bibcite{OIS-repo}{Gam}
\bibcite{orbitcorba}{GNO04}
\bibcite{android-instrumentation}{Goo}
\bibcite{pkg-config}{Hen}
\bibcite{torcs-overview}{HS13}
\bibcite{icestorm}{icea}
\bibcite{ice}{ICEb}
\bibcite{Junker:2006:POP:1177262}{Jun06}
\bibcite{bash}{Koc10}
\bibcite{Mourato:2011:ALG:2071423.2071433}{MdSB11}
\acronymused{TORCS}
\bibcite{carPhysics}{Mon03}
\bibcite{website:newzoo}{New14}
\bibcite{ogre3d}{ogr}
\bibcite{torcs-overview-architecture}{OPA{$^{+}$}09}
\bibcite{opencorba}{OPC}
\bibcite{JavaRMI}{Ora}
\bibcite{ohyagi2007racing}{OS07}
\bibcite{server-integration}{Phl}
\bibcite{gcc}{Pla13}
\bibcite{politica-contribuciones}{pol}
\bibcite{Pressman2005}{Pre10}
\bibcite{repo-torcs}{repa}
\bibcite{repositorio-ogre3d}{repb}
\bibcite{Russell2004}{RN04}
\bibcite{smed2006algorithms}{SH06}
\bibcite{make}{SM88}
\bibcite{gdb}{SP14}
\bibcite{emacs}{Sta13}
\bibcite{Stroustrup:2013:CPL:518791}{Str13}
\bibcite{taocorba}{TCO10}
\bibcite{emacs-pills}{VA}
\bibcite{sloccount}{Whe}
\bibcite{cocomo}{yAM03}
\bibcite{academicIAgames}{Yan12}
\bibcite{a-star-modification}{yYBL12}
\acronymused{TORCS}
\acronymused{COCOMO}
\acronymused{COCOMO}
